"","Sepal.Length","Sepal.Width","Petal.Length","Petal.Width","Species"
"44",9.85360980285872,7.16283285137497,3.90373181195651,1.02061558324088,"setosa"
"119",15.2349263973914,5.38141059989983,14.4864841577732,4.86985681008088,"virginica"
"62",11.5756596586226,5.98376221112405,8.37187510433352,2.92641260303256,"versicolor"
"133",12.5178195206385,5.49985866034372,11.5696795132107,4.4769802393963,"virginica"
"142",13.8378359055339,6.27267128128806,9.95842667378415,4.40700226859688,"virginica"
"7",9.19330535278927,6.8210525369318,2.42822583193322,0.697083546120053,"setosa"
"80",11.3962402029386,5.23149017226341,7.16612497438578,2.14311388021311,"versicolor"
"134",12.8558323281377,5.57532804556913,9.97511153181979,2.99736535241971,"virginica"
"83",11.2948128885528,5.37255627612077,7.1775474264928,2.62484177292279,"versicolor"
"69",12.2048469229046,4.43600470281709,9.67930779515525,3.20235215326212,"versicolor"
"144",13.6090780609362,6.38218827065935,12.0650445642852,4.89471180017162,"virginica"
"69.1",12.2263189620209,4.56973993776483,9.51049971713191,3.1017439472466,"versicolor"
"102",11.6496917997655,5.52803871557177,10.1460093742013,3.88711498441336,"virginica"
"86",11.9883127396853,6.69694185767431,8.47288133333283,2.92263319318845,"versicolor"
"16",11.4456847526926,8.77032402051581,3.25412835995396,0.611480606425898,"setosa"
"135",11.9655921669697,5.17025441527453,10.5233626743132,2.51497539905129,"virginica"
"37",10.7666174468721,6.8218585435357,2.12493659496579,0.611716445877392,"setosa"
"7.1",9.14221818413913,6.75555766666843,3.35790665634583,0.553934632339309,"setosa"
"50",10.1205545112539,6.57113376450716,2.31112212839034,0.593428147375264,"setosa"
"144.1",13.7010676321285,6.28529056600746,11.4598027427384,4.38758501968502,"virginica"
"134.1",12.874023013319,5.67632921286909,9.83920004685029,2.94258448051397,"virginica"
"104",12.8062572667895,5.6191558510982,10.934821573185,3.73568418611619,"virginica"
"97",11.5158641626487,5.88594756152738,8.00709422518652,2.33146819246281,"versicolor"
"150",12.002559136757,5.9749908215579,9.53830075000878,3.49654829847735,"virginica"
"99",9.9549945745717,5.08596131118421,6.56808441452956,2.36876849881716,"versicolor"
"107",9.63583014229814,4.81931238257028,9.64752564326091,3.60760941519518,"virginica"
"82",10.8890348136502,4.63097453528805,8.02419992851664,2.22597768537969,"versicolor"
"90",10.938915424434,4.96967131831058,7.93417590648386,2.87626136743782,"versicolor"
"44.1",10.0891707933627,7.05347115641934,3.11213815368463,1.12923713592001,"setosa"
"23",9.40329226172341,7.09583599764806,1.36595437029591,0.674791808141997,"setosa"
"145",13.2411149204607,6.72395414337123,11.2024165772916,5.12446138597249,"virginica"
"136",15.6104428472216,6.07240290137468,12.7590740548174,4.55242487118234,"virginica"
"104.1",12.2808302133366,5.94837074154248,11.0182621540837,3.53372541393268,"virginica"
"120",12.1017085417482,4.36811963951651,10.0046302585568,2.82350589126007,"virginica"
"4",9.40533929364912,6.16691684258767,3.03890151733784,0.553960416890074,"setosa"
"72",12.1745525219341,5.50707044350504,7.53524212733432,2.56650890772972,"versicolor"
"114",11.2046317076993,4.95307409412636,10.0544053890497,3.97153176024955,"virginica"
"33",10.082997798826,8.10033366646023,2.45098634159045,-0.0541303289843728,"setosa"
"48",9.05714282639346,6.56044438255177,2.96083226733615,0.317781140419393,"setosa"
"35",10.0735528722577,6.19120638710601,3.06339475526099,0.640839157388795,"setosa"
"22",10.4856892594241,7.23184875541459,2.61608972667217,0.827097846891186,"setosa"
"63",12.0280168842792,4.50168257553496,8.56593074355244,1.71390205685031,"versicolor"
"63.1",11.8151749869835,4.3372194691225,7.5750697855821,1.93196737676937,"versicolor"
"56",11.3930357687959,5.61965632639788,8.88979334279376,2.36425147953946,"versicolor"
"23.1",9.39837595031969,7.26554920157028,2.54176215303884,0.264171531291739,"setosa"
"21",10.7391534685549,6.71722616443616,3.03099129100395,0.53386145626359,"setosa"
"35.1",9.53895260021967,6.03377833975165,2.70630109787075,0.324401138606791,"setosa"
"70",11.0554515202482,4.97240145769742,8.33053316129696,2.28199261647435,"versicolor"
"40",10.1087435315351,6.8409355011825,3.16783392805846,0.398016829574682,"setosa"
"129",12.6414071595984,5.77696559807494,11.7036164178135,4.38750280932203,"virginica"
"7.2",9.18068722053519,6.97464373847535,2.76798202351902,0.650117841057408,"setosa"
"67",11.1116282801854,5.84702303755919,9.55567275783706,2.79999600230095,"versicolor"
"120.1",11.7505202342621,4.39939779421636,9.53354971609401,3.26665661642451,"virginica"
"19",11.1015907811069,7.56122351189543,3.57064965502838,0.327917401322102,"setosa"
"85",10.6437466177765,5.95923193487645,9.3139833510494,2.74829745325385,"versicolor"
"31",9.90870837528212,6.13252890731903,2.76335636642802,0.608279369688056,"setosa"
"20",10.1924216198014,7.66787054462405,3.09685523598019,0.551758897192645,"setosa"
"113",13.5853906877225,5.91993263489392,11.2417752422128,4.33262127438664,"virginica"
"135.1",12.3638875356441,5.159143752508,11.7908822488919,2.9440028475681,"virginica"
"57",12.7104297850436,6.78221551287218,9.15412452687633,3.49725568188649,"versicolor"
"100",11.1031861719419,5.70855036090678,8.26589754353052,2.88109410265797,"versicolor"
"15",11.7285218353097,7.9302633944898,1.70227976776282,0.181568653106538,"setosa"
"58",9.70992618135537,4.91788550830078,6.41692731102902,2.10058600742678,"versicolor"
"42",9.25304064160486,4.49625085508544,2.7939788710961,0.315321150248863,"setosa"
"123",15.581346766548,5.60039918250489,13.5544922540259,3.99665428456509,"virginica"
"68",11.3623323230983,5.27620011003686,8.64863621935847,2.17766440237425,"versicolor"
"122",11.0649662915943,5.45861191321544,9.26141439730723,3.92634306334661,"virginica"
"122.1",10.9536892110863,5.74780773403898,10.030254386003,4.27336940395183,"virginica"
"120.2",12.0592209692823,4.24896735989703,9.57941223233226,3.09797881972451,"virginica"
"66",13.4406276236615,6.33570705573371,8.92242945345057,2.7590006870054,"versicolor"
"114.1",11.5243164159632,4.91694999574237,10.2749532230029,4.2065259689676,"virginica"
"95",11.0756782675249,5.22427219665061,8.4398724472272,2.78580287066659,"versicolor"
"107.1",9.86955330540486,5.10683263418409,8.81608917184243,3.35552317071535,"virginica"
"1",10.5234594337054,6.94745830710523,3.07974898005147,0.295963682446009,"setosa"
"72.1",12.3602065703193,5.42346153208599,7.96293615107575,2.63966119023764,"versicolor"
"34",10.7206040247269,8.49148296075951,2.42057078041112,0.620274691283085,"setosa"
"57.1",12.5678334542591,6.4251427699706,9.33535236396115,3.25236347154562,"versicolor"
"92",11.9059010241111,5.97541487823659,8.6068665058044,2.8884931061445,"versicolor"
"53",13.6943102741135,6.10952833364528,9.45844817491627,3.16286575263252,"versicolor"
"17",10.9541114880447,7.79926217722396,2.67622704465519,0.917602687504152,"setosa"
"37.1",10.6733399641693,7.05700835233982,1.92591530943047,0.623670325146999,"setosa"
"101",12.7791151530101,6.44522839640268,11.5927952665479,4.75284977383725,"virginica"
"63.2",11.9756106309602,4.28121866848066,8.1922479462824,2.06704011182263,"versicolor"
"119.1",15.5454743422315,5.05296268677686,14.1058268528411,4.44198749674601,"virginica"
"16.1",11.509682445647,8.91612912857923,3.39024052402019,0.781487723797122,"setosa"
"66.1",13.4474771802315,6.24739782327466,8.19843290454249,2.66823739792597,"versicolor"
"148",13.1342578692906,6.04853908313438,9.83443153463361,4.2551621812972,"virginica"
"134.2",12.703566356218,5.55943933676383,10.8291993205548,2.93886471434389,"virginica"
"133.1",12.6612397682839,5.57481590865405,11.8073347754599,4.43984665689663,"virginica"
"27",9.73468922116967,6.74373112610059,3.79404045905046,0.544422117927971,"setosa"
"20.1",10.5046111705108,7.70912731229111,3.21134012975366,0.869955070412022,"setosa"
"98",12.5556805059808,5.94383982944101,8.11562216259071,2.74377592821928,"versicolor"
"52",12.8742544215417,6.4561800609954,9.57810189125575,2.98494558475544,"versicolor"
"99.1",9.94963544453621,5.03452103764885,6.59490074856286,2.00599053006366,"versicolor"
"49",10.6331071823077,7.33599449655629,2.53379110492651,0.540475901254347,"setosa"
"29",10.2437202511658,6.64226654726818,2.19865666467579,0.469898664552767,"setosa"
"118",15.6624125522456,7.63397234040325,13.4933503872523,4.13232663434466,"virginica"
"15.1",11.2766817090721,7.88042474292599,2.21028732530292,0.12760305870261,"setosa"
"71",11.6262498262007,6.48971961935404,9.54385442300459,3.57271565483561,"versicolor"
"77",13.3562989773304,5.52337543552842,9.55029630057483,2.60545323511059,"versicolor"
"90.1",10.8855344203146,5.05174100490022,8.39312255428777,2.59469842124917,"versicolor"
"50.1",10.1491359226251,6.46053128486699,3.25621122187735,0.693841396903254,"setosa"
"74",12.5239277362879,5.50902237649808,9.09322711640825,2.23177184355781,"versicolor"
"144.2",13.741715082588,6.51917059925271,12.1241568954368,4.72959829262981,"virginica"
"73",12.6029246402808,5.11292747962714,9.79432204826161,2.78664963891892,"versicolor"
"134.3",12.5578726311844,5.43116833188832,9.58865052778749,3.01568741335789,"virginica"
"138",13.0956550200268,6.33960035555353,10.3483096681996,3.80030195843814,"virginica"
"92.1",11.9498018444262,5.86171590765749,8.83012335299176,2.57246251193916,"versicolor"
"62.1",11.520135038869,6.04045704196412,8.00307630310761,3.19494033607694,"versicolor"
"23.2",9.45626044231351,7.1886867738086,1.89060262371085,0.245114892740743,"setosa"
"141",13.3502342675292,6.22129741764571,11.270125459362,4.55426474347652,"virginica"
"46",9.29853888011999,6.08564633231206,3.10126544161232,0.394927806886283,"setosa"
"10",9.89712468242851,6.18879525345024,2.63351891310495,0.300222503122534,"setosa"
"143",11.5793284755219,5.58163615480672,10.7577180328417,3.90819426193299,"virginica"
"109",13.4776815705089,5.18017087470546,11.575508043281,3.37617695789896,"virginica"
"22.1",10.0490290646738,7.36032959240093,2.66573031071382,1.09240993222688,"setosa"
"83.1",11.3742498472426,5.44046289092805,7.54617356511677,2.18450708338746,"versicolor"
"144.3",13.3458974037016,6.34256004229793,12.0315853913525,4.86941636121326,"virginica"
"88",12.605060938656,4.57662219147922,9.12144083492362,2.72217290899362,"versicolor"
"61",10.0316403475647,3.89930737664728,7.1006897374776,2.0414432408981,"versicolor"
"98.1",12.1632825739873,5.61638704330614,9.1337747636007,2.44532562046007,"versicolor"
"48.1",8.98246669950832,6.22300574938478,2.67202104963554,0.302964719397766,"setosa"
"47",10.372577803632,7.43597263105666,2.784752212007,0.607184146361782,"setosa"
"33.1",10.4180458913662,8.29835348647266,2.95887106565476,0.45704045532636,"setosa"
"56.1",11.6377948112286,5.58849240267228,8.83002396855735,2.60936938665414,"versicolor"
"148.1",13.1143260174137,6.13041842371559,10.0441901124182,4.23666774807325,"virginica"
"24",9.87922512397771,6.63037840831234,3.99908789460213,1.12444161492846,"setosa"
"14",8.72726606842025,5.88360368151886,2.15232288686762,0.153511152290319,"setosa"
"22.2",10.458033903322,7.44054238428265,2.31489559995282,0.678205679367526,"setosa"
"104.2",12.6868537725396,5.94622105831372,11.824730012609,3.88256816593091,"virginica"
"93",11.3413128907073,5.3094111016802,7.82317075850147,2.17121856763767,"versicolor"
"134.4",12.8773686219873,5.60152147220215,9.5065792784225,3.10997023024374,"virginica"
"101.1",12.7155166030452,6.57138649086652,12.6773044310153,5.19503537946412,"virginica"
"111",12.7685178523322,6.45738977936121,10.0273913979862,3.82698663102509,"virginica"
"79",12.1616142300334,5.94413811491642,9.68483551914722,3.05737361743493,"versicolor"
"99.2",10.4915535059422,5.14572840473134,5.49203544517037,1.99370485492602,"versicolor"
"124",12.5478175690099,5.28044473302408,9.8876970822843,3.54239081901037,"virginica"
"118.1",15.2667539598245,7.50985382657903,13.8149038447437,4.24077419916712,"virginica"
"147",12.4415269360226,4.85629943080928,9.56855070266482,3.81682955766763,"virginica"
"66.2",13.2174533859488,6.31046602421289,9.09698179537074,2.90424688526379,"versicolor"
"47.1",10.2432485387218,7.45484963686933,3.29261615752655,0.648529894463347,"setosa"
"62.2",11.9690633493924,6.12232928116553,7.70950288218848,2.89804104467275,"versicolor"
"2",9.9117230808568,6.10075888991465,2.45741964663171,0.243000794200798,"setosa"
"28",10.4306459978781,7.1649373275836,2.95909808951116,0.28413263455342,"setosa"
"127",12.6051707069709,5.5877167988281,10.2016676112371,3.4334081765097,"virginica"
"35.2",9.97072115694215,6.3635121647778,3.69811934569799,0.170110293951439,"setosa"
"36",9.68385431291102,6.50601405377986,1.99121694810963,0.258379217804481,"setosa"
"12",9.52154759814872,6.93925692425068,3.26369143080789,0.6583406362325,"setosa"
"37.2",10.7041508943138,6.9607674924729,2.80493280990782,0.129547549273987,"setosa"
"110",14.5962378426066,7.05119196001255,12.7653659921245,5.00088733701836,"virginica"
"128",12.4791037250926,5.91708752364271,10.127459989631,3.77914833966896,"virginica"
"75",12.8280608589981,5.88260893965011,8.75463840876409,2.80606542165403,"versicolor"
"59",13.4321134178122,5.74658281344398,8.8114995720359,2.64651107952134,"versicolor"
"37.3",11.0550454324627,6.95639925517277,3.18659749800561,0.242582227168365,"setosa"
"17.1",10.9108799697069,7.62601378540119,3.02674490517074,0.850040895500183,"setosa"
"59.1",13.2074532733056,5.80797208199875,8.93558793146692,2.37895986062372,"versicolor"
"86.1",12.1730819080081,6.65913930736026,8.6155576416829,3.18945811194922,"versicolor"
"33.2",10.6657071658656,8.34318856400866,3.22213212685896,-0.0477672988558701,"setosa"
"67.1",11.411106434378,5.84187879628229,9.33226558806004,2.88107196111152,"versicolor"
"33.3",10.1176889559773,8.30565904321276,2.95079997821018,0.307753527263079,"setosa"
"76",12.8732012371654,6.13164532441369,9.31250560364248,2.62019364862552,"versicolor"
"54",10.7050194323598,4.42795037495813,8.24666519533095,2.53592213630936,"versicolor"
"98.2",12.6414644834135,5.71641173249725,8.1228353657342,2.78467742811433,"versicolor"
"57.2",12.6502250417372,6.65281315598427,8.71228606480163,3.03433210885683,"versicolor"
"54.1",10.8773723670475,4.70597517609049,8.51597680304071,2.34200155159408,"versicolor"
"81",11.3026642670438,4.76284926109199,7.03720040051273,2.36965934766838,"versicolor"
"112",12.8600721372544,5.56181951207885,10.3353393388149,3.9037498410124,"virginica"
"34.1",11.0206902971454,8.35930072236892,2.70767007607551,0.406774591100508,"setosa"
"62.3",11.7235455098541,5.97173259370141,8.5631594115131,2.82560071894548,"versicolor"
"40.1",10.0811341530463,6.72060429324008,2.7733845871402,0.20955784435316,"setosa"
"95.1",11.4031435271497,5.44154141089739,8.51272999199919,2.66777666847075,"versicolor"
"28.1",10.0982482610583,7.02186307772623,3.46468016323832,0.118728209531266,"setosa"
"130",14.3102431151877,5.82898714602926,11.3668925059935,3.03501498990459,"virginica"
"112.1",13.0349014082159,5.49118123715584,10.4337045122453,3.99753476234506,"virginica"
"101.2",12.7303935096118,6.49088948271837,12.148971094236,4.8782661381224,"virginica"
"93.1",11.7215269234271,5.25817589060245,7.99398969426489,2.10491661369425,"versicolor"
"56.2",11.2998828328688,5.60833244142895,8.44925889972227,2.88147002253726,"versicolor"
"80.1",11.4360206056748,5.24960378472414,7.48758964154379,1.74861119516322,"versicolor"
"132",15.5610411950551,7.64370297987309,12.72368420669,4.15124270534036,"virginica"
"88.1",12.7876931943458,4.52003696009812,9.1529075178707,2.80489514974239,"versicolor"
"126",14.654838294399,6.29732795472689,12.416564847777,3.30484875929054,"virginica"
"47.2",10.005078842086,7.61450507522726,3.04593886919084,0.615172150043591,"setosa"
"107.2",9.97826768208732,5.1845215742884,8.31617290630961,3.43067087438685,"virginica"
"40.2",10.2634772510098,6.73640134536969,3.34309580370736,0.302242649929841,"setosa"
"90.2",11.3014811592526,4.93432686655538,7.39163428940329,2.49371438039936,"versicolor"
"73.1",12.3751675323491,4.82726092538227,9.84513342183066,3.08489532288921,"versicolor"
"40.3",10.2171100545986,6.80952096324022,2.46809352900435,0.173064225705416,"setosa"
"85.1",11.0458063018727,6.03598705240844,9.2477496952359,2.88482314196474,"versicolor"
"137",12.8435367784332,6.88999341927673,10.5742055332109,4.85066311618392,"virginica"
"136.1",15.0862390350591,6.16833790760831,12.6200474191745,4.75805581571737,"virginica"
"42.1",9.3134832023473,4.5961417936175,2.82919343806902,0.631528166812512,"setosa"
"49.1",10.5935603781841,7.24509102334491,2.63950551098485,0.514511213151229,"setosa"
"148.2",12.9269930773312,5.91075551079233,9.92129131491157,3.92149801151027,"virginica"
"93.2",11.5456909121039,5.33934567751996,7.37699612836442,2.64803101542658,"versicolor"
"141.1",13.1318476967856,6.33087464454598,10.5166849885652,5.09009963673514,"virginica"
"70.1",10.9772233077467,5.12747155648706,8.26986711876799,2.36226212670273,"versicolor"
"62.4",11.7376949314293,6.16613220200828,8.06436338964233,2.70258373471064,"versicolor"
"99.3",10.0957983009785,5.05675794948455,5.37335243865732,2.21378372564174,"versicolor"
"23.3",9.14417747368007,7.19559694372079,1.78580149696649,0.582356038297455,"setosa"
"86.2",11.8709233246191,6.68392651521104,9.11306870607168,3.02160872119905,"versicolor"
"36.1",10.0397086471567,6.4791930196514,2.82879891592647,0.330655531495292,"setosa"
"145.1",13.1733137011222,6.44575369735982,11.1748528316355,5.02584468322979,"virginica"
"91",11.3007631569895,5.18557624706999,8.28531763285761,2.54894359716953,"versicolor"
"78",13.0995967666022,6.16204440650298,10.385660339738,3.29836743542749,"versicolor"
"61.1",9.9157863665639,4.12835964579955,7.53172078730359,1.89323469739457,"versicolor"
"133.2",13.1047389776839,5.6803653614093,11.8877961685496,4.35349910713662,"virginica"
"55",13.0957975849554,5.46015357830838,9.41821845291987,2.86359033239375,"versicolor"
"44.2",9.71099016739647,7.03525120926308,2.85329885114763,1.27688877570762,"setosa"
"26",9.9406786087036,6.18209813250908,3.39938312593287,0.121689576546025,"setosa"
"26.1",9.95119142908622,6.0429020106692,3.13038762186525,0.464964070135912,"setosa"
"73.2",12.6053739817293,4.91564377514104,9.37286356357643,2.94941719553646,"versicolor"
"38",9.76679990848737,7.03781215734424,2.94967239727845,-0.0782975095351511,"setosa"
"33.4",10.4811960707603,8.04100779954706,3.6689957126963,0.500876136660187,"setosa"
"102.1",11.3628423715874,5.53884925093737,9.7759830704751,3.87717592153484,"virginica"
"8",10.2687268622626,6.74900649367566,2.90804207487272,0.606622043827015,"setosa"
"106",15.2457444244957,6.16565580706901,12.9738281289136,4.1372430214828,"virginica"
"53.1",13.8318039014705,6.22167951276649,9.14317962976905,3.2762900789964,"versicolor"
"62.5",11.5475925501463,6.00470666274778,7.8350660847755,2.92584792841919,"versicolor"
"124.1",12.7726061351006,5.56645486865398,9.68615781321484,3.79506949358038,"virginica"
"138.1",12.785751288148,6.0549474443178,10.3619685449399,3.29951064952711,"virginica"
"43",8.98574161101712,6.51855085696361,1.93263794791837,0.627905313758127,"setosa"
"145.2",13.1009537015107,6.55440309164585,10.9398117347908,4.74019441791406,"virginica"
"110.1",14.6106915364827,7.22105577226737,12.0281616651877,5.19312374664317,"virginica"
"103",14.0481022402404,5.93080837914888,11.9244919098487,4.25246836297254,"virginica"
"8.1",9.85695687807697,6.64473992737804,2.76944586933617,0.511437281209207,"setosa"
"60",10.4943444536046,5.50406412603707,7.79231575185761,2.93059168558098,"versicolor"
"72.2",12.4951896841328,5.48596292006328,8.35565714895101,2.46590993853743,"versicolor"
"85.2",10.475244693513,6.05783742179196,8.53353950452963,3.10580719509137,"versicolor"
"105",12.9022559891803,5.97589153222774,12.0843524699616,4.27623621864932,"virginica"
"138.2",12.7466729249491,6.08741776304818,10.7467149526193,3.64332315136897,"virginica"
"93.3",11.5722521484926,5.38388531993023,7.62491118294498,2.12846335226524,"versicolor"
"65",11.3394484238442,5.78020216575434,6.9321838971599,2.50707281818261,"versicolor"
"82.1",11.2765668503064,4.6258123069995,7.80863119638462,1.99858472397159,"versicolor"
"9",8.88373173451554,5.96245676023378,2.45397604464586,0.41932369217931,"setosa"
"40.4",10.4649295278419,6.93790976609505,3.59597428537744,0.592553058397578,"setosa"
"60.1",10.5695106449738,5.43763734549415,7.30435049073663,2.80629699759014,"versicolor"
"30",9.16144614857012,6.32528590230399,2.80037243339601,0.612784389212124,"setosa"
"125",13.1715883055898,6.71499654353873,11.5777277584137,4.25743806279805,"virginica"
"23.4",8.99665782741994,7.36807964292224,1.65758780893855,0.423108248861721,"setosa"
"121",13.7559869936766,6.53087272446347,11.6920136149614,4.67746823906306,"virginica"
"83.2",11.3280886371402,5.26145592940337,8.14167274988043,2.27314727477536,"versicolor"
"100.1",11.21804537688,5.77430256602182,7.86503879293348,2.64100189458575,"versicolor"
"26.2",10.0475265579646,6.02122675836707,3.30235839655877,0.704591137613104,"setosa"
"95.2",11.1342383622006,5.21612392509741,8.98586118993313,2.85638950363302,"versicolor"
"47.3",10.2431240631109,7.46459869204576,3.49377029184664,0.564243348760045,"setosa"
"109.1",13.6171334039819,4.81630334721774,12.0853721581346,3.80960548818106,"virginica"
"60.2",10.4936147511503,5.51779492695438,8.39191332777033,3.05750292303821,"versicolor"
"146",13.3285268850323,6.10489163736961,10.1105353754189,4.66146102799603,"virginica"
"146.1",13.5380567070707,6.16024480294065,10.6123465428274,4.51938666166992,"virginica"
"110.2",14.142320365571,7.15118670928026,11.695065610726,5.15062078068135,"virginica"
"39",8.65087832079249,6.17637409910551,3.09830668984906,0.390768198538287,"setosa"
"34.2",11.0618330404115,8.52034864292169,3.03398810228727,0.0980375571016759,"setosa"
"89",10.9761532675502,6.10685638836747,8.5288764520172,2.70558089363204,"versicolor"
"41",10.2328153867981,7.04565933899214,2.3388745393471,0.541245055674161,"setosa"
"80.2",11.6290664963774,5.37373476177415,7.23640023191015,2.27634681948198,"versicolor"
"118.2",15.3854333621475,7.59996969967164,13.3490979333257,4.17704258416597,"virginica"
"26.3",10.1802894329744,6.14635260482468,3.4118254002533,0.325434590163019,"setosa"
"61.2",9.86522372969539,3.96321376569851,7.4028032147907,2.24382965522401,"versicolor"
"71.1",11.5138658550934,6.38049909096935,10.1662063707928,3.78497494801084,"versicolor"
"131",14.7608273372725,5.7619967402643,12.2386312324954,3.80391934348285,"virginica"
"139",11.9750333500064,6.06815200540244,9.11810104412959,3.30613737265793,"virginica"
"133.3",12.6952185691286,5.42088171402337,10.8752751665338,4.24771853155381,"virginica"
"102.2",11.3925922277045,5.27566272988775,9.68488052040539,3.6816931085814,"virginica"
"143.1",11.6046096182677,5.39845151447694,9.83008456506216,3.89861804003616,"virginica"
"78.1",13.0832763190808,5.97269016786054,10.3144006963992,3.15497151293857,"versicolor"
"87",13.5802854259588,6.38291608030048,9.57918465749217,3.28373043594644,"versicolor"
"51",14.0393032258549,6.5445885192401,9.33285724256934,3.02393008137545,"versicolor"
"53.2",13.8931857986392,6.14266102233134,9.98930711681894,2.8688108979095,"versicolor"
"4.1",9.179205264009,6.27652060097062,3.04157616745673,0.360172794412303,"setosa"
"76.1",13.0545679223817,6.15193952552066,8.56053313219259,2.70301198411066,"versicolor"
"131.1",14.7744521600421,5.66553520861414,12.5816072078464,3.70739086033026,"virginica"
"1.1",10.392835764404,7.05170920643319,2.99026867823137,0.280586377631209,"setosa"
"11",10.8563646812403,7.26974380655168,3.38671854936069,0.652768558040391,"setosa"
"25",9.53067450170059,6.83759240453667,3.34733445899646,0.268028095668618,"setosa"
"116",13.0050216308362,6.31552242746718,10.453977896012,4.82431038497625,"virginica"
"111.1",12.8804819202256,6.38433239046116,10.852202965722,4.19311584611955,"virginica"
"146.2",13.4536518709222,5.89675022194584,10.2270722331064,4.4076637232758,"virginica"
"70.2",11.1706792052886,4.90889439855013,7.20455917992548,2.03366486330962,"versicolor"
"12.1",9.44770370966811,6.85713195479503,3.24134815020769,0.500997325189981,"setosa"
"98.3",12.4363469246906,5.78958872330556,9.23389078286238,2.58053498206838,"versicolor"
"114.2",11.2229535032419,4.87396622438709,10.5019451615373,3.76196159924722,"virginica"
"21.1",10.8284788418323,6.71527302628495,3.46968077389078,0.183919135267755,"setosa"
"60.3",10.3654628367263,5.47916440761773,8.032503782684,2.68851435488202,"versicolor"
"34.3",10.7564594056536,8.44213814499981,2.800631653321,0.465371540287605,"setosa"
"9.1",8.88018465498468,5.66324483039256,3.39773424994268,0.672586370428322,"setosa"
"60.4",10.431615312996,5.24015427500871,7.22481808254128,2.75279365864053,"versicolor"
"10.1",9.56894635745504,6.37332959588918,2.99570572475253,0.460069361127103,"setosa"
"34.4",11.0392246985632,8.35103072533982,3.19779788143102,0.155864306324378,"setosa"
"9.2",8.75183727669396,5.86596687274559,3.321303127915,0.623360109410303,"setosa"
"101.3",12.5655682054707,6.72860427429922,12.5659923063292,4.85394761780694,"virginica"
"45",10.4195515342356,7.50396098127665,4.23889694967431,0.668304665675407,"setosa"
"16.2",11.5446489082076,8.6271967901777,2.51192820334353,0.596242856610247,"setosa"
"11.1",10.7715999776345,7.43540465461625,3.32384738618902,0.113371270465762,"setosa"
"133.4",12.8140074251251,5.72497586294812,11.5657721619352,4.15493592693343,"virginica"
"114.3",11.2303485426136,4.94879245052201,10.2266767889037,3.76819226444086,"virginica"
"123.1",15.1206064648869,5.537617679036,13.9751298216121,3.81349515646572,"virginica"
"148.3",12.9283927276152,6.05380435807237,10.2446491800488,4.20098295813166,"virginica"
"16.3",11.0792693816694,8.97048582698198,3.64411586847683,0.504442470256196,"setosa"
"15.2",11.8420832219332,8.03576278635606,2.33880802285225,0.330295219572777,"setosa"
"120.3",12.3245011208078,4.40382149917226,9.57011134941272,3.25267101668728,"virginica"
"118.3",15.5375794786562,7.47184771246534,13.5278697300106,4.10442503276725,"virginica"
"2.1",10.0152175589505,6.12856683078616,2.31428076977382,0.283926686533042,"setosa"
"117",13.258154146306,5.89382363242963,11.027479931803,3.55640150560058,"virginica"
"110.3",14.42596106379,7.26314876745831,12.0771466113997,5.03788703229199,"virginica"
"95.3",11.2364367670546,5.44377484379059,8.86121579386574,2.85657945297238,"versicolor"
"73.3",12.4527340639637,4.83271668550524,9.88893431852284,3.01031915734531,"versicolor"
"24.1",10.3048685783234,6.76705973212124,3.33865172579513,1.14637447455523,"setosa"
"2.2",9.63099288992939,6.03068793471795,2.36636209426218,0.471861645382071,"setosa"
"68.1",11.4605244259639,5.53418135102368,8.16045876339986,1.82056837886876,"versicolor"
"74.1",12.3421415651849,5.60686502477717,9.02295623118984,2.40529850832845,"versicolor"
"59.2",13.349883414014,5.71306011033541,8.93794336222854,2.33233929227663,"versicolor"
"70.3",10.9846233766699,5.0361992227373,8.31708188458405,2.36738922592609,"versicolor"
"107.3",9.67241125900039,5.1098776056499,8.92245902046495,3.21965207742849,"virginica"
"9.3",8.71430391525733,5.87036528902736,2.70687139922284,0.617740653064653,"setosa"
"54.2",10.7218321782388,4.59279999759734,7.96136260696057,2.60839794411368,"versicolor"
"121.1",13.9404085961076,6.38733457344568,11.8699332822621,4.44854066263137,"virginica"
"126.1",14.4335443704736,6.44401866241774,11.3098205502517,3.79071213842914,"virginica"
"36.2",9.76013331828733,6.38114179487982,2.13096595118214,0.135961585243179,"setosa"
"54.3",11.3123462333641,4.63818055106489,7.41667818354006,2.31107653181861,"versicolor"
"129.1",12.840817041729,5.41584308507414,11.6552819550788,4.25869633767769,"virginica"
"129.2",12.9899841450276,5.78400951483787,11.1592753085265,4.41153307439195,"virginica"
"45.1",10.4298404566766,7.56522830243471,3.84557783327386,0.770973385212663,"setosa"
"23.5",9.44902776376126,7.05797714496513,1.85255873764941,0.401327706804071,"setosa"
"106.1",15.3979330445722,6.13737265347997,13.1357787026813,4.02295272554842,"virginica"
"16.4",11.492320125749,8.81494135036103,2.45719876285425,0.931462753307714,"setosa"
"6",10.8849286880289,7.94185531346833,2.7390675237631,0.822184268809895,"setosa"
"150.1",11.6494200689401,5.82808482175961,9.52796063005171,3.32506879047936,"virginica"
"6.1",10.4903568813443,7.94179445739493,2.80450899505515,0.996788980941862,"setosa"
"51.1",13.9472120895616,6.48265638067896,9.20482659673451,2.64907430263746,"versicolor"
"138.3",12.7047703640354,6.30029941851545,11.3684583960559,3.6130793902554,"virginica"
"93.4",11.5290752799218,5.33516251249281,8.34290807809624,2.29450115150121,"versicolor"
"43.1",8.58389468448178,6.40027586982772,2.03294285453876,0.162406001926108,"setosa"
"111.2",12.8811927075292,6.55831091157394,10.8510606301497,4.21448349516493,"virginica"
"126.2",14.3430560576107,6.29147952769095,11.4970928228529,3.67600450840175,"virginica"
"48.2",9.37083241305169,6.22420599006962,2.77838056001725,0.612247907652644,"setosa"
"74.2",12.0497370504714,5.53152282182181,9.49149273546749,2.1719449613382,"versicolor"
"105.1",12.7467723212857,6.059520210093,12.2093393571376,4.50259850233093,"virginica"
"97.1",11.089959528061,5.73111324876585,8.85107833979066,2.66581670808747,"versicolor"
"97.2",11.602135038339,5.96522430505055,8.44663089838944,2.87176381895306,"versicolor"
"147.1",12.5869086715001,5.10370466692684,9.83715779119475,3.84916413884557,"virginica"
"63.3",12.2017349531808,4.3403100888535,8.06482101833358,1.87995197123527,"versicolor"
"18",9.92267807249007,6.99317717298274,3.21824120031821,0.865124878306898,"setosa"
"79.1",11.7466109009478,5.76877186325906,9.17949183208675,3.20998761478303,"versicolor"
"34.5",10.755885092922,8.50272450600558,2.24177315322031,0.354005428533075,"setosa"
"73.4",12.7572710200236,4.99458262767877,9.36586014546477,2.99125868239909,"versicolor"
"56.3",11.5693587246954,5.41981703952457,9.48220831809476,2.76374146432696,"versicolor"
"148.4",13.3243954833544,6.05295491777733,10.3709311145174,3.84894036358936,"virginica"
"59.3",13.2820468899629,5.70142556209269,9.59080176657664,2.79027949992893,"versicolor"
"35.3",9.66080366446314,6.29182952890109,3.44847689650678,0.596411231672378,"setosa"
"94",9.80232264063207,4.52401898021069,6.31377621471046,1.94959278192663,"versicolor"
"21.2",10.9982238576504,6.95100775961082,3.01479473418517,0.653902757387307,"setosa"
"146.3",13.5500343142105,6.13134485227382,10.5696457387275,4.33832338037608,"virginica"
"78.2",13.2136107837238,5.98586039487333,9.82222626985591,3.58909413927511,"versicolor"
"25.1",9.76088742801066,6.6406527772088,4.34403225475292,0.391404658082196,"setosa"
"94.1",10.2415260935411,4.6289227965674,6.07218279288677,1.88123367622329,"versicolor"
"148.5",13.0193704776678,6.02958286257987,9.91794253384486,4.07187853100143,"virginica"
"101.4",12.6649762496989,6.78348248507943,12.1951644121924,4.88978213549177,"virginica"
"63.4",12.2882818999171,4.33876482602933,7.55759766732515,2.09289378383959,"versicolor"
"49.2",10.8969058495417,7.46200697737747,3.23187674484832,0.653581007334777,"setosa"
"126.3",14.5057475725544,6.56302903388375,12.0169505707121,3.64212384674386,"virginica"
"22.3",9.91825199382029,7.42782731835041,3.34056575145358,0.88408466152736,"setosa"
"29.1",10.6149646645162,6.87126689967096,2.56956336533661,0.348820138231999,"setosa"
"135.2",12.1865250539707,5.04749664602459,10.6520787187347,2.980870523624,"virginica"
"47.4",10.1283490485989,7.73622774819856,3.06227617960602,0.620913157122132,"setosa"
"55.1",12.8676759836917,5.60042355995342,9.26018433144016,2.91915200989976,"versicolor"
"118.4",15.2315679666105,7.49712314863803,13.7386508560332,4.39264503517929,"virginica"
"30.1",9.34849392490519,6.36744268380604,2.73848402434127,0.641692235898968,"setosa"
"3",9.68837270239433,6.5436056951824,2.72190213490818,0.377939460011859,"setosa"
"61.3",9.84485909052931,3.99836190208672,6.99978369966454,1.82275051340264,"versicolor"
"73.5",12.6451683507386,5.0642195596668,10.4150520707267,3.10747969488157,"versicolor"
"64",12.0038197996154,5.71914808783097,9.97832662574741,2.94277050842961,"versicolor"
"52.1",12.5976416023643,6.51786341670597,8.51076815046417,3.09311169225263,"versicolor"
"130.1",14.5440062915495,5.90561488057575,11.3283837709203,3.02127860862556,"virginica"
"69.2",12.2771584926265,4.35154220904257,9.27949775279216,3.28097484004712,"versicolor"
"81.1",10.7617964363675,4.70168370248925,7.97100469997696,1.8993097922801,"versicolor"
"145.3",13.1088612043783,6.76198850392048,11.4139113838911,5.24523798198331,"virginica"
"117.1",13.2839786149729,5.96843061645686,10.6148190238987,3.34976746262083,"virginica"
"32",10.8450163539272,6.66522525537084,2.52902810062724,1.00555772817943,"setosa"
"47.5",9.94821356072947,7.7540361553914,2.94084334576265,0.433054415339749,"setosa"
"146.4",13.4426821211576,5.94336212673187,9.75858959026918,4.66306282586604,"virginica"
"88.2",12.6265179878896,4.73119870538069,9.03900849373347,2.78986547023851,"versicolor"
"115",11.8105847237342,5.46715301742981,10.5471303118662,4.65546380149359,"virginica"
"56.4",11.5337088526282,5.54774550311745,8.64555508280387,2.31946328747555,"versicolor"
"116.1",12.844627940893,6.30539392282277,10.5534202129254,4.37943049535244,"virginica"
"81.2",11.1457832318181,4.63119484285803,6.95766810914849,1.95936984202887,"versicolor"
"138.4",12.966292780749,6.30577798359962,10.4337514863212,3.40206503735933,"virginica"
"28.2",10.3218894113365,6.88816994576332,3.55970898236313,0.681223888131366,"setosa"
"43.2",8.66035584127958,6.35979635413914,2.76230301943413,0.213421086252716,"setosa"
"15.3",11.620870783706,7.93441093802232,2.59833225140067,0.297665159862098,"setosa"
"32.1",10.6416714623556,6.83795690169967,2.9450320720936,0.917263414065813,"setosa"
"147.2",12.8185605041482,5.01534235540366,9.68952912517496,3.91797428982381,"virginica"
"45.2",10.1376602753299,7.78245906699464,4.42716213446387,0.669569489729356,"setosa"
"109.2",13.1184794829841,4.90847415788828,10.9277644906314,3.47750450995495,"virginica"
"118.5",15.6989047854701,7.68745935117859,12.9451688335054,4.35728645085275,"virginica"
"16.5",11.2137002448032,8.97754630359102,3.66448299149029,0.728428190791667,"setosa"
"36.3",9.93783245568425,6.42157813978435,2.82248357596903,0.648073493199636,"setosa"
"41.1",10.0827815909874,6.96011527600077,3.30426345259374,0.621197164644862,"setosa"
"16.6",11.4845842001742,8.92070015235025,2.66276533560666,0.865496165276291,"setosa"
"18.1",10.0868555164667,6.85590759999427,2.91583733664769,0.602666653177056,"setosa"
"149",12.1621385578345,6.8133000964809,10.1971440489707,4.60268961191753,"virginica"
"148.6",13.2731474529498,5.97911992445668,10.8260721112172,3.95344341643848,"virginica"
"21.3",10.8652907412241,6.71597073791076,3.93641095560817,0.227754895825464,"setosa"
"136.2",15.5644238840268,5.8726259140122,12.7491870059175,4.4897802131058,"virginica"
"87.1",13.6759783978372,6.33822727688992,8.7112101854576,2.84244199791434,"versicolor"
"60.5",10.4189486525403,5.42306458683918,7.43550133001702,2.49580667091633,"versicolor"
"68.2",11.5156684559189,5.418843436826,8.351196659339,1.83158588977133,"versicolor"
"106.2",14.9139845645035,6.03433591881058,13.0065031668573,4.48609287480889,"virginica"
"13",9.83343438620479,6.08468727083335,3.09488184471785,0.158779802017623,"setosa"
"51.2",14.0068582449811,6.45164415680058,8.75454693642193,3.08252102161561,"versicolor"
"103.1",14.0089667868079,6.04254576317912,12.0215342502004,4.05110103838949,"virginica"
"48.3",9.11821424672128,6.23361520968372,2.42040388585312,0.177688426912719,"setosa"
"125.1",13.2072326392147,6.62422177661529,11.0800091766982,4.23816812260341,"virginica"
"33.5",10.3731506705982,8.23246832966547,3.32864684048291,0.15929597628109,"setosa"
"75.1",12.6297195683054,5.84779359067427,8.14649867120012,2.82128996734724,"versicolor"
"42.2",8.74881956793324,4.64531169110709,2.43880027748114,0.853354553816702,"setosa"
"29.2",10.1183722575096,6.64471285044099,3.05984972659349,0.472143850364995,"setosa"
"143.2",11.7258108981325,5.24299264727579,10.0804608737951,4.00789680167559,"virginica"
"49.3",10.4596624203688,7.4695506762801,3.05942756315488,0.270879646313722,"setosa"
"72.3",11.9690572098876,5.72278722742167,7.93683965652243,2.84338542277709,"versicolor"
"5",10.3112055191725,7.06837035475988,2.27434333392716,0.1811475970528,"setosa"
"83.3",11.541053072029,5.50539961500031,7.13919917667523,2.18164373619263,"versicolor"
"97.3",11.3353217608542,5.79496294544226,7.92873461200996,2.64851968024511,"versicolor"
"90.3",11.097858643583,5.18187966210423,8.42127556227679,2.90185974815942,"versicolor"
"49.4",10.8742334163019,7.39966727533825,2.49594211088355,0.420415749105883,"setosa"
"134.5",12.4133566218173,5.62314476335332,9.60016981137172,2.77346868762122,"virginica"
"94.2",10.0316183356656,4.55474320218574,5.93552001756723,1.8031099675759,"versicolor"
"46.1",9.74495401592977,6.00692820132532,2.6835630033784,0.767418584621697,"setosa"
"59.4",13.1323127780016,5.64174403780496,9.69900630835749,2.6917804794368,"versicolor"
"25.2",9.33255620926509,6.81430172902082,3.56107234716154,0.434254484801872,"setosa"
"130.2",14.4888604179011,6.17139505373359,11.5216826741074,3.34970831946973,"virginica"
"143.3",11.2722674646412,5.41033815560067,10.0780536950548,3.70439245217493,"virginica"
"85.3",10.6093127398322,5.97663962230398,8.79104114332823,2.93367915229637,"versicolor"
"50.2",10.1179278399621,6.42612469258314,3.4030595486066,0.309866364167494,"setosa"
"150.2",12.0412200617483,5.82815706642192,10.8061665004269,3.67487765444336,"virginica"
"36.4",10.1974197231093,6.2317310218304,2.09027857182501,0.193125552148024,"setosa"
"92.2",11.9595608825311,5.87396473741371,9.52321482841142,2.64537839364644,"versicolor"
"17.2",10.7258916363713,7.78851224909308,2.20080528446619,1.0729849665113,"setosa"
"74.3",12.3900253469212,5.71372433585227,10.0205339545874,2.69778685942122,"versicolor"
"15.4",11.7270781754911,7.91843920771947,1.78587473900855,0.421747002385522,"setosa"
"25.3",9.66210051062211,6.89471352978592,4.48878406487638,0.122732224461675,"setosa"
"43.3",8.55222344673146,6.40811353964603,2.19153575100992,0.462361274957814,"setosa"
"88.3",12.6362816431268,4.52154312097519,8.54421952208453,2.73517829392009,"versicolor"
"110.4",14.3666757225976,7.02058955248945,11.6668806064363,5.05062669321679,"virginica"
"25.4",9.77533209252815,6.86258234086811,3.9187008813452,0.416143296826799,"setosa"
"130.3",14.0878259692293,5.83902742225925,11.8231867334232,3.11082811839378,"virginica"
"107.4",9.59920003098786,5.1250484634281,9.69934991731223,3.14392499885402,"virginica"
"115.1",11.8511309529543,5.46444227707346,9.76878496086127,4.57339687926426,"virginica"
"23.6",8.94296428835109,7.25794620826252,2.44610551337554,0.318211873713004,"setosa"
"54.4",11.3086489313908,4.72562886263458,8.16836895712614,2.66106854067072,"versicolor"
"101.5",12.5243767763358,6.50990794133137,12.6844684174114,4.84013896021053,"virginica"
"79.2",12.2362152075076,5.66468469995366,8.91795515184119,2.70616927603033,"versicolor"
"53.3",14.0551822724427,6.29794931871208,10.1159914711346,2.88406201668438,"versicolor"
"37.4",10.9928142340211,6.89293733155317,2.00215409429984,0.142675458478446,"setosa"
"9.4",8.94366379355248,5.71374489940088,2.98371950408252,0.248108366440803,"setosa"
"36.5",9.99124255108069,6.41183294468003,1.99770654823603,0.181008379252076,"setosa"
"134.6",12.9219275828868,5.59037819096943,10.7907647706131,2.9207970009714,"virginica"
"122.2",10.9132881598799,5.55295388288791,10.2396996877209,3.78069769910441,"virginica"
"113.1",13.374491925066,6.10235872414259,11.5019492109168,4.24146382902716,"virginica"
"24.2",10.3879679259877,6.62163677379328,3.84647272866065,1.02602617449681,"setosa"
"19.1",11.4277907262372,7.47183748411381,3.28315394516135,0.394922702482999,"setosa"
"147.3",12.5450271652864,5.18193666589525,10.6731105734224,4.07137744563862,"virginica"
"66.3",13.7286293705178,6.10500038449839,8.79910307179103,2.8767682895279,"versicolor"
"70.4",11.0390543549264,4.86259671789772,7.7979867459094,1.9346460282308,"versicolor"
"25.5",9.60518794721731,6.69319193740188,3.57937246392699,0.205426489099374,"setosa"
"88.4",12.3226553435735,4.55539271752486,8.19017433991699,2.70228538796558,"versicolor"
"41.2",10.2066230151704,6.9478155010478,3.17418580554178,0.848018831844056,"setosa"
"35.4",9.72238778294714,6.12664148851741,2.60691528225588,0.592583754670603,"setosa"
"104.3",12.7990570593889,5.63063491506855,10.9148050915193,3.56492136845486,"virginica"
"43.4",8.60101299313993,6.56162658732275,2.82346729809089,0.193403302846227,"setosa"
"122.3",11.4940572813621,5.62554490405203,9.89390147567538,3.79619102970914,"virginica"
"15.5",11.4983397042475,7.89621106876706,3.06429166839978,0.387161358062293,"setosa"
"124.2",12.6145251772191,5.54050348181942,9.24314775396844,3.53649788693266,"virginica"
"65.1",10.9442069266892,5.78783992403237,7.26173505476333,2.77983967523962,"versicolor"
"114.4",11.6542535256357,5.01574314190102,10.5854714702189,4.16454452502332,"virginica"
"100.2",11.6992317455838,5.70572232353746,8.72565926228334,2.53851158623861,"versicolor"
"67.2",10.8972346486786,6.05496937116339,9.57020192266717,3.07939297548582,"versicolor"
"95.4",11.1957947867864,5.26799239572739,8.7929441882928,2.54674631694367,"versicolor"
"1.2",10.0195497229089,6.93369538678391,2.3308740607681,0.317916344635993,"setosa"
"33.6",10.6363528374363,8.36767563441842,2.4663379767827,0.27369635138693,"setosa"
"106.3",15.2203783209328,5.88409074657404,12.6619814912647,4.47803960087012,"virginica"
"33.7",10.07368988878,8.29308540420163,2.90424854269933,0.185409224072096,"setosa"
"123.2",15.2534719718583,5.58481755058053,13.7909798989094,4.07345785441889,"virginica"
"47.6",10.0848559251766,7.46668085872018,3.76958059052176,0.271470515778605,"setosa"
"104.4",12.6584335572754,5.69040832236697,11.0963534347445,3.54363552829086,"virginica"
"140",13.635109600643,6.2651636957584,11.2362592172027,4.16638654417115,"virginica"
"18.2",9.89903727719046,6.86544116416543,2.75542437026982,0.468000556566706,"setosa"
"20.2",9.94354212313377,7.56860417187,3.25174297743612,0.886687015453443,"setosa"
"102.3",11.7342189132338,5.38187654651055,10.5646769030662,4.03330574531548,"virginica"
"65.2",11.489196815419,5.84570422109387,7.4584473403874,2.78833467741232,"versicolor"
"126.4",14.2756112146597,6.30750140526228,12.4899171854407,3.7269748442966,"virginica"
"146.5",13.1223403072684,5.98667439015446,10.1344057705966,4.40498946744556,"virginica"
"11.2",10.6825773412438,7.27565622866356,2.55285641264724,0.134115837303177,"setosa"
"69.3",12.4822791252455,4.53301115516398,8.42706232880801,2.76009621287091,"versicolor"
"106.4",15.1606354652415,5.87232642554244,12.516097786201,4.41232004270163,"virginica"
"14.1",8.79850543339642,5.84696618964938,2.76720585768497,0.114281653273774,"setosa"
"149.1",12.2546074425435,6.94624932500258,11.2172897569396,4.77379110812819,"virginica"
"38.1",9.84658095902346,7.12588256517364,2.20486497158098,0.448818859174374,"setosa"
"8.2",9.69838561537634,6.89371082884092,2.43865262306487,0.481361337434085,"setosa"
"103.2",13.9962660595109,5.9634232046875,11.3403474123368,4.27019700196025,"virginica"
"119.2",15.5495888543471,5.18087696388202,13.8404219768082,4.33628925479632,"virginica"
"54.5",11.2152008008338,4.47348703025073,8.33167762235549,2.44236501459089,"versicolor"
"55.2",13.0070623026279,5.46785213960307,8.66187512178688,2.94559325393594,"versicolor"
"44.3",10.0446133118964,6.86958613838452,2.64104357836118,1.38975206054046,"setosa"
"12.2",9.27139597002938,6.8053657991855,3.27366591204351,0.326301275730001,"setosa"
"55.3",12.7653456620428,5.59733361914088,8.90473367918458,2.96765067025985,"versicolor"
"27.1",10.2410737923343,6.84324932065296,3.11605028190872,0.842995087968059,"setosa"
"81.3",10.7250201100905,4.78045495832644,7.0621931629877,1.97511622038811,"versicolor"
"76.2",13.0317408389825,5.83482703344113,9.39427594134819,2.50304245376985,"versicolor"
"142.1",14.1172073132582,6.01613576955877,10.5278373869446,4.7083415942186,"virginica"
"52.2",12.8511051789017,6.29659450276975,8.94577677592554,3.20437524003026,"versicolor"
"70.5",11.0344783150079,5.13046724949922,8.0428790290967,2.46603001940213,"versicolor"
"13.1",9.67572371086177,5.91351315892707,2.50188060859329,-0.0692533224379377,"setosa"
"130.4",14.0915541215113,6.03665371632433,11.830378056659,3.30246080000642,"virginica"
"60.6",10.1670882955951,5.44037090734325,7.62390791524041,2.73039622150459,"versicolor"
"111.3",13.1337704242592,6.58295523192877,10.4409185616659,4.04642288871607,"virginica"
"26.4",9.71382145445838,5.8852027971007,3.07698433724971,0.179751743085795,"setosa"
"69.4",12.4802380645798,4.49419554633039,9.297858132096,2.85110941539223,"versicolor"
"116.2",13.0880810088034,6.30423493612847,10.2914242183779,4.48600600607241,"virginica"
"10.2",9.52853348658009,6.13585699946867,3.33645651667069,0.331177136728592,"setosa"
"123.3",15.7114502377673,5.41544402928223,13.5056025911349,3.81015923966212,"virginica"
"46.2",9.28776865231084,6.18491270714338,2.12977200194767,0.38180498135628,"setosa"
"55.4",13.1483645908275,5.57697420827903,9.00646674607044,3.04519267740612,"versicolor"
"47.7",10.1695049739434,7.78501107017288,3.11662641616581,0.125075403117958,"setosa"
"6.2",10.8435963891199,7.68725822785525,3.26384401835911,0.760368180100184,"setosa"
"78.3",13.6455294233195,5.85557018409595,10.0631068499238,3.38945679325491,"versicolor"
"102.4",11.6359424473978,5.30733863984039,10.7119293627278,3.7785456243714,"virginica"
"136.3",15.5565488305319,6.06709046531889,12.5744712717473,4.59158605039035,"virginica"
"4.2",9.28110897238759,6.2287185520317,2.38745752787783,0.544877383256414,"setosa"
"149.2",12.2755185890409,6.76890290084084,10.2608874929246,4.89939956860635,"virginica"
"46.3",9.52898650319137,6.08519595343484,2.53189444216962,0.807578324080545,"setosa"
"141.2",13.203755828775,6.22757932953324,10.9303300259774,4.56335574138205,"virginica"
"104.5",12.8323873111188,5.82886013024672,11.5274811990726,3.82039220074609,"virginica"
"68.3",11.6703723115781,5.43345632195102,7.69467823288489,2.0413751784962,"versicolor"
"123.4",15.5686996516048,5.49700123854548,14.0731445903106,4.11176203538026,"virginica"
"6.3",10.8411817479422,7.65260202302777,3.90009301066019,0.976599129793028,"setosa"
"111.4",12.8523777756121,6.48791887217243,10.3182913987949,3.94056084130832,"virginica"
"53.4",13.9551695775924,6.24178503019394,10.3631900927153,3.21542563523319,"versicolor"
"125.2",13.4324621184346,6.7677339151197,10.7084158815726,4.01072390930625,"virginica"
"81.4",10.8986391433141,4.97095449095795,8.00108625884311,2.19739108569982,"versicolor"
"42.3",9.00985832470079,4.69101547926493,3.17480054788732,0.368306050097413,"setosa"
"121.2",14.0080060752809,6.37577372481419,10.8513868045162,4.43454103075435,"virginica"
"14.2",8.61730655081701,5.87910074217368,2.15182433831505,0.447269409265773,"setosa"
"125.3",13.2043833320854,6.57594395340568,11.6457457397205,4.18400812514331,"virginica"
"42.4",9.22930925364188,4.69756634179358,2.55130487371143,0.624682419745264,"setosa"
"113.2",13.5146905496282,6.15577017174303,11.5285954677289,4.48891663718019,"virginica"
"145.4",13.2704442308856,6.75118596878326,11.2605790045443,5.28808347978509,"virginica"
"13.2",9.77825061139706,6.11728890143065,2.89399342668417,0.313030738138961,"setosa"
"129.3",12.9537797552788,5.48838600438043,11.416649894474,4.37071687675397,"virginica"
"121.3",14.0232478221085,6.23257758329997,11.0978850944594,4.30757616582741,"virginica"
"58.1",9.84548459976178,4.79217431407927,7.15245046253114,2.13931660114058,"versicolor"
"50.3",9.68794659380459,6.6336028774589,2.29076259185115,0.657758168190624,"setosa"
"31.1",9.59086157785026,6.05004739886421,3.28061575422896,0.363691636179645,"setosa"
"86.3",12.028115311221,6.9676141679762,8.65174997218079,3.32535787519502,"versicolor"
"134.7",12.8217683908641,5.47462796077787,9.59899333354745,3.19313627182545,"virginica"
"80.3",11.5506283759801,5.35669095499556,7.37020604872211,1.99183446525146,"versicolor"
"89.1",11.2363051625264,5.86162891400222,8.34992792825466,2.80915833126543,"versicolor"
"100.3",11.1189949212973,5.66049689913049,7.96460306544842,2.59565451565313,"versicolor"
"80.4",11.16055286583,5.30558989228599,7.5774252556589,1.70587850521354,"versicolor"
"77.1",13.7216074356685,5.69836743295007,9.7268942975289,2.76369618530586,"versicolor"
"3.1",9.13625863450063,6.46415137605171,3.2292418441264,0.38653863406554,"setosa"
"8.3",9.80487464993134,6.65712744475267,3.56708920083385,0.461735701030957,"setosa"
"140.1",13.7117169882048,6.33059299577537,10.6406802407268,4.16539230091203,"virginica"
"116.3",13.0280498111753,6.44385110397344,10.9079513009438,4.48241833010922,"virginica"
"31.2",9.42666987220471,6.32505780496186,3.66139917769138,0.505487455593331,"setosa"
"98.4",12.534959352085,5.67729894839824,9.18328660139643,2.66653701503697,"versicolor"
"99.4",9.94151984801872,4.81795168871581,5.47935324306272,2.48884542697774,"versicolor"
"60.7",10.5838312613302,5.33437654704577,7.15785099316014,2.60232657214974,"versicolor"
"122.4",11.0386805688949,5.51438173746967,10.4881708626668,4.28856976052076,"virginica"
"83.4",11.6316476189652,5.52091282390512,7.64421996616742,2.44836696371701,"versicolor"
"133.5",12.492966572129,5.76120963730356,11.4974820448662,4.54520689994704,"virginica"
"83.5",11.8016437425788,5.2616350145745,7.83656281606964,2.62307285468573,"versicolor"
"136.4",15.2931227755681,6.1536543344692,12.040586136875,4.68993585937229,"virginica"
"89.2",11.4742203196521,6.03911972189443,8.50807228743781,2.7187241523928,"versicolor"
"64.1",12.1058715951815,5.76293195645942,9.93586879065361,3.10239921296661,"versicolor"
"143.4",11.9131375792278,5.46163283141904,9.66602124172747,4.01304513531317,"virginica"
"107.5",9.72383657078258,5.09947749302697,8.81260870471769,3.56209629791214,"virginica"
"62.6",11.7925389086734,6.00813951883667,8.80866206506817,2.77905118063039,"versicolor"
"3.2",9.39392401937718,6.36078417011707,2.19913548267172,0.153149414605377,"setosa"
"86.4",11.6787070944325,6.97315183722294,9.17016566179473,3.21332287591442,"versicolor"
"74.4",12.2931927557791,5.4323396527585,9.22764835325184,2.21246513382704,"versicolor"
"132.1",15.808283521239,7.47112063848151,12.9466388688902,4.14114563440308,"virginica"
"122.5",11.0816604056698,5.67317305552201,9.89093918965289,3.99669918249998,"virginica"
"129.4",12.8536425297568,5.68467723774445,11.4740699128385,3.9821573579705,"virginica"
"56.5",11.4772983769016,5.45441876235709,9.44278888876004,2.80807140827362,"versicolor"
"132.2",15.7593395363255,7.58682869289752,12.7347174328054,4.26910366312824,"virginica"
"23.7",8.98286189223019,7.25283381998077,1.81671384581713,0.26460632402846,"setosa"
"43.5",8.94168014934416,6.36175196708836,3.05479136810713,0.18680405563698,"setosa"
"101.6",12.7632246334503,6.78231279615821,12.0177940457332,5.12602783025581,"virginica"
"147.4",12.8265472135953,5.0664333049632,10.3405121686356,3.83984295793638,"virginica"
"88.5",12.6228968551026,4.53134638836217,9.29239632427055,2.35029162813204,"versicolor"
"79.3",11.8697262740208,5.67129200653777,8.91585180980424,3.03679510286192,"versicolor"
"10.3",9.77135718693472,6.12611721796878,2.86737675099818,0.270284674686757,"setosa"
"146.6",13.3238128642683,5.84926499467011,10.8946221286148,4.62952609368235,"virginica"
"19.2",11.2346894317875,7.42412045742196,3.71999362068501,0.53505162314981,"setosa"
"14.3",8.70185740055383,5.9295489660115,2.36219275121021,0.149184897482299,"setosa"
"133.6",13.099935749979,5.69012434979296,11.4819036394986,4.64691147661535,"virginica"
"77.2",13.4623799076346,5.77103491579146,9.94980244913166,2.90587331239077,"versicolor"
"51.3",14.0989341783572,6.36870043850938,9.06432170325095,3.07732748549972,"versicolor"
"135.3",12.2239514066484,5.20826580173883,10.8845467849004,2.58732393936709,"virginica"
"5.1",10.0641945468381,7.03922956140337,2.37639096924181,0.436429978301496,"setosa"
"36.6",9.68703585310805,6.44826745957639,3.0244075994304,0.155251256160019,"setosa"
"103.3",13.8738239989583,5.94550796581419,11.4774273879518,4.2752788130924,"virginica"
"34.6",10.7571774996335,8.37201338603421,2.79775697389642,0.251438036341865,"setosa"
"48.4",8.88698238676505,6.57240164893898,2.14695661032111,0.387356915117963,"setosa"
"27.2",9.73132310426835,6.86728447068399,3.62530185944,0.786062290957922,"setosa"
"121.4",13.7838994492328,6.4812118768329,11.2664130111449,4.80153105110118,"virginica"
"22.4",10.0001784631936,7.27755973946766,2.94379703661193,1.04122003770539,"setosa"
"124.3",12.8072854244243,5.28981949025574,10.4077135711369,3.64687820654349,"virginica"
"50.4",9.83140392850699,6.73997878370102,2.64478570409632,0.670622735789018,"setosa"
"57.3",12.5926272462977,6.72547079736418,9.74648080340371,3.07306281572732,"versicolor"
"95.5",11.2980734761234,5.48201601031269,8.79974921174983,2.67641870335489,"versicolor"
"15.6",11.3751860244977,7.91861238489781,1.98765645757949,0.473287169119103,"setosa"
"4.3",9.42197773158752,6.09219186670334,2.37491967848686,0.490625990683138,"setosa"
"149.3",12.3582341808337,6.79782543679841,10.5625169451708,4.43835058612123,"virginica"
"88.6",12.4244452918795,4.60808640013145,9.05907537653838,2.54130929999603,"versicolor"
"118.6",15.2675002450903,7.49585013350252,13.7774306973766,4.19934780413446,"virginica"
"134.8",12.3756503419968,5.69780742094492,10.4157247554893,3.01168546335965,"virginica"
"114.5",11.4563656876721,4.82324469112008,10.6114513732284,4.05144290223812,"virginica"
"147.5",12.368639233035,5.07861789409381,9.30020041942349,3.54393499653888,"virginica"
"7.3",8.98858664442077,6.92672173155084,2.62858812434894,0.739582948994839,"setosa"
"136.5",15.2940902520538,6.16015364705821,12.4025523982913,4.66955686716646,"virginica"
"130.5",14.1917764687384,6.06025603237919,11.0348885539917,3.30421088255238,"virginica"
"117.2",12.937777290585,5.91447820222792,10.3164767587655,3.47568385738663,"virginica"
"57.4",12.6748052191682,6.49525596152966,8.90464870510681,3.11497577545222,"versicolor"
"7.4",9.3223074281402,6.93673291624585,3.14576751237326,0.679923185864473,"setosa"
"55.5",13.2131162800146,5.42326398395055,9.69720032119441,3.28056896019419,"versicolor"
"42.5",8.91698813598061,4.73011911466934,2.35325874827067,0.517481940635814,"setosa"
"128.1",12.4983003208891,6.00889689436059,9.4711181750643,3.41583664188899,"virginica"
"55.6",12.6830399192689,5.57600887156492,8.8385273746505,2.85005746931873,"versicolor"
"46.4",9.67402485632483,6.16032973101851,3.44308966959464,0.591037690217702,"setosa"
"114.6",11.3760049160223,4.87529979153677,9.99615025893404,3.94711983554424,"virginica"
"127.1",12.3043059255252,5.55494073448205,9.87408157691553,3.49526536111782,"virginica"
"69.5",12.6519138308035,4.26544663861633,9.5851328762593,2.912705195546,"versicolor"
"110.5",14.1205682741599,7.06978713295727,12.3535264246679,5.11211591866803,"virginica"
"16.7",11.6524857164118,8.86559259055339,2.66539464409559,1.02144554885515,"setosa"
"33.8",10.1946221179284,8.22309109175021,3.59048735907277,0.181077380856819,"setosa"
"144.4",13.4123056878738,6.38946057753215,12.0982708993727,4.65052560269052,"virginica"
"113.3",13.8434223050242,6.11564853679176,10.3570215201511,4.19912187992792,"virginica"
"123.5",15.1107104979199,5.771888550944,13.5881804290677,4.10202300783646,"virginica"
"63.5",11.8253701997674,4.40572847822493,8.49718007626591,2.11456362912024,"versicolor"
"90.4",11.324764507163,5.07573200722819,7.46311153659767,2.36055289482569,"versicolor"
"120.4",12.1173843332145,4.28136998481338,10.6371522631924,2.76352827992439,"virginica"
"134.9",12.5575031679629,5.54608533827684,9.55280886751693,3.26390592743667,"virginica"
"58.2",9.71918027889616,4.6326806312477,6.13570714831098,1.95236052676578,"versicolor"
"14.4",8.5744307209901,5.87084013462848,1.52787962670895,0.238606842885413,"setosa"
"94.3",10.1988391273393,4.4510330624525,6.44482683488355,2.27821287670569,"versicolor"
"112.2",12.9073513672941,5.31827213267135,10.8949783701898,3.61457507581073,"virginica"
"13.3",9.57760556616125,5.9581606802175,3.01953910887051,0.0315427678427973,"setosa"
"46.5",9.30571822760397,6.0498722562967,2.78046801105373,0.674002524149996,"setosa"
"93.5",11.4268841723884,5.27697393250267,7.40902480998842,2.60401608878022,"versicolor"
"113.4",13.4242767967649,5.93532396027782,11.6594880708677,4.38779667853092,"virginica"
"138.5",12.6225732287776,6.37292748496419,11.0849552486963,3.38722735196607,"virginica"
"72.4",11.9112955942873,5.6730300774055,8.30573155606493,2.34585613721961,"versicolor"
"86.5",11.9981019391487,6.6740090334679,8.6947348754177,3.3700896866883,"versicolor"
"111.5",12.8314473128944,6.35132513031671,10.6260287028796,4.27714821931637,"virginica"
"129.5",12.9700747686956,5.52647632801244,11.382136068704,4.27220025578182,"virginica"
"137.1",12.6311597309934,6.78437417276867,11.7764347828122,4.7617149981752,"virginica"
"9.5",9.09515546867322,5.92017729451288,2.65358734207109,0.50026291724122,"setosa"
"76.3",12.9273988738619,5.90057404064078,8.52977482943108,3.02494767452521,"versicolor"
"53.5",14.0950340571425,6.16368921375251,10.126575402857,3.00159854159806,"versicolor"
"127.2",12.5465009860775,5.77531758608255,9.87486666460321,3.61756385799685,"virginica"
"121.5",14.0779874342793,6.26038197482314,11.308804890809,4.76509726763968,"virginica"
"18.3",10.2749905368161,7.04843410013054,3.23345257713358,0.520595919256722,"setosa"
"107.6",9.57666818945741,5.07578562568801,8.72600950606434,3.66861506019575,"virginica"
"36.7",9.79114326594442,6.43390284058302,2.98432015144979,0.115384892109585,"setosa"
"12.3",9.7516290038255,6.98457521421327,3.38299591419253,0.3013828964526,"setosa"
"141.3",13.4589733040908,6.03098300835319,11.590665988476,4.57780917149291,"virginica"
"24.3",10.0764763551932,6.78217981746165,3.70606664049666,0.900679972614364,"setosa"
"98.5",12.5796980748591,5.89119029367195,8.82999858559321,2.58994593215542,"versicolor"
"27.3",9.89216458242618,6.77648726292607,3.4862603488335,0.95681215608234,"setosa"
"4.4",9.43429519411237,6.07100847585434,2.56676693769837,0.580573458909863,"setosa"
"79.4",12.0530465996007,5.78099111401616,9.13824229324584,2.94905712781659,"versicolor"
"13.4",9.54448391405782,5.88339418722277,3.17657971037748,-0.086638976958901,"setosa"
"43.6",9.0849490204175,6.37269513225706,2.22841905418568,0.667303584917078,"setosa"
"64.2",12.1754285776972,5.91924687267811,9.67000032055885,3.05337022097842,"versicolor"
"89.3",10.9360770841468,5.83285762617394,7.62525661534479,2.6683659565815,"versicolor"
"122.6",11.1772404311179,5.53508747118308,10.1341121655024,4.25555903516465,"virginica"
"31.3",9.91888095071295,6.32728838689952,3.82678273001806,0.476991753409242,"setosa"
"69.6",12.6801403386254,4.22907363439055,9.23128330153672,2.7722143949485,"versicolor"
"68.4",11.5574451752843,5.50850100481546,8.43597404447973,1.78208569798085,"versicolor"
"111.6",13.2435464258839,6.57160599293851,10.0872696939352,4.11076498904387,"virginica"
"108",14.4684871422432,5.8598206648358,12.0897105020785,3.85795718681885,"virginica"
"125.4",13.5962837521224,6.41737036054045,11.3568197997738,3.98697061504782,"virginica"
"133.7",12.997955664134,5.58728246861743,10.6273922565901,4.63467656155399,"virginica"
"143.5",11.525514472459,5.48052414359476,10.5581191080282,3.76962175648744,"virginica"
"83.6",11.5219994841756,5.22460617468032,7.61158775207757,2.12356294792304,"versicolor"
"79.5",12.0958556181244,5.92842986417932,9.09603895930793,3.19724825456825,"versicolor"
"26.5",10.2382414943928,6.09160259097046,3.03511729018511,0.684337312043117,"setosa"
"72.5",12.303178765875,5.51228067489492,7.58171177122058,2.78744752042243,"versicolor"
"39.1",8.81075448762721,6.09141607655835,2.64970693886314,0.27575652442825,"setosa"
"6.4",10.568641608625,7.8637841562041,3.239100475683,0.615776974947007,"setosa"
"96",11.4742823743331,5.8780887143223,8.91064509179266,2.2180825103328,"versicolor"
"81.5",10.6982794325296,4.86309048727635,7.02712346593886,2.10823402676848,"versicolor"
"22.5",10.198919017887,7.55998002915411,2.38467604128488,0.631749132569441,"setosa"
"43.7",8.95777144437461,6.5304715373142,2.13030034353671,0.195409699073174,"setosa"
"88.7",12.7672516068601,4.70448630911199,9.41406071180138,2.35164994616414,"versicolor"
"25.6",9.31219638707597,6.8690851238695,3.71896578527478,0.481041303331102,"setosa"
"15.7",11.5621110775052,8.0339656007267,2.64581342726992,0.573661678736338,"setosa"
"65.3",11.200442468942,5.76404273587484,6.5460969738815,2.33138005901676,"versicolor"
"54.6",10.8486520518337,4.46184193609505,7.95548918561167,2.34650921816129,"versicolor"
"127.3",12.4650840194932,5.71901810277551,8.95959384393636,3.29771247780035,"virginica"
"40.5",10.3553535101313,6.88056377991752,3.16918877614401,0.181829022397217,"setosa"
"4.5",9.34069028458262,6.30718202904649,3.51431916316822,0.66171892503533,"setosa"
"130.6",14.1473720823855,5.8209385423723,11.1713243264582,2.99382004006253,"virginica"
"51.4",14.0494842656193,6.2789947974841,9.09286543747392,3.09788413655274,"versicolor"
"95.6",11.3963887248584,5.43667181827781,8.91473511048283,2.72453372802582,"versicolor"
"82.2",10.8233440728499,4.64410646018616,6.74039838996541,1.89300743800776,"versicolor"
"57.5",12.74811945966,6.67706773490345,9.79798292386467,3.09516773542961,"versicolor"
"28.3",10.6226662942641,7.02366826289155,2.93666997081664,0.568730736710852,"setosa"
"65.4",10.948917223717,5.71926090038149,6.60817730757572,2.5991481985845,"versicolor"
"95.7",11.502324765643,5.35987312654018,8.97333380020857,2.59817480071909,"versicolor"
"79.6",12.1632101648815,5.86421005801076,8.56165155074272,2.85753722581063,"versicolor"
"99.5",10.4047924775784,4.87441849565,6.34687476054303,2.46208951476586,"versicolor"
"110.6",14.1957392513714,7.05446429611322,12.1035388379902,5.10826601392456,"virginica"
"74.5",11.8877410297309,5.61243257526465,9.64036695734816,2.52821478225487,"versicolor"
"58.3",10.0396346033304,4.65249302935033,6.15945913876535,1.86693975303595,"versicolor"
"2.3",10.0761266914643,5.84885702976115,3.33807108831531,0.449205308430705,"setosa"
"1.3",9.96129439163366,7.05201584431944,2.16412383973826,0.677002205583084,"setosa"
"150.3",11.7852764586362,6.02380716853591,9.80562579297377,3.31705558565205,"virginica"
"17.3",10.7756015991476,7.72771004567855,2.26425520731323,0.806241796575099,"setosa"
"63.6",12.1318638182469,4.31301607688176,8.37663521992425,2.21988246292617,"versicolor"
"108.1",14.3138308035992,5.84925591171582,12.4392629290178,3.4643166056967,"virginica"
"112.3",12.9535106231214,5.52295608727061,10.2878964271043,3.71636645388482,"virginica"
"131.2",14.7314469324137,5.43322070551907,11.6046445431035,4.05398907819659,"virginica"
"92.3",12.1746308568965,6.18302087972629,9.20042970745997,2.54403085218382,"versicolor"
"114.7",11.5484116316205,4.82234044711413,9.93157029830207,4.00775938314918,"virginica"
"128.2",12.1802398194334,5.88098314384135,10.4858701823779,3.55123971114383,"virginica"
"92.4",12.5290518333691,5.93631790374589,8.6955845223509,2.59148126997396,"versicolor"
"119.3",15.6278785636338,5.33192911639936,14.2705450651049,4.56924086197301,"virginica"
"4.6",9.41620026243305,6.08266394039434,2.33686678034902,0.198537338844617,"setosa"
"63.7",12.17235319036,4.50979605260347,8.3929133767121,2.21662693735078,"versicolor"
"132.3",15.5444825958986,7.73339987856815,12.417563014596,4.11472211933726,"virginica"
"98.6",12.6232946058488,5.78959852711667,8.08392191783936,2.36920908338303,"versicolor"
"139.1",12.2067430093838,6.05509299975748,9.16391278543475,3.367739956979,"virginica"
"26.6",10.3237083517987,5.93496090577329,2.79950816834399,0.27105572948591,"setosa"
"48.5",8.90246086192898,6.3874119212483,3.41196922451247,0.668452184269522,"setosa"
"121.6",13.9625668009916,6.56446071132938,12.0889937163401,4.86321088254136,"virginica"
"149.4",12.3468493308752,6.70537876737888,10.5322281032965,4.40665231313835,"virginica"
"49.5",10.654110715776,7.22247794143206,2.48853209030545,0.651767140902519,"setosa"
"1.4",10.4178647160828,7.17362952266122,3.02691121775236,0.135629415546327,"setosa"
"149.5",12.0795476370494,6.71080043859382,10.9196863133888,4.83027503624855,"virginica"
"23.8",8.87822433631795,7.25728789597849,1.78020841712469,0.130966148162171,"setosa"
"8.4",10.3270240819278,6.64215200271392,3.44252510149971,0.675440570104259,"setosa"
"90.5",11.1750179690975,5.17443778634373,7.69439547020385,2.39271301422344,"versicolor"
"49.6",10.477912551742,7.55558802364908,3.48746667679709,0.449292760948897,"setosa"
"80.5",11.6055317484964,5.33685721328554,6.48837846231418,2.12892022507183,"versicolor"
"120.5",12.3235812320421,4.37188860118416,10.5101692366993,2.86604240953008,"virginica"
"11.3",10.602881124839,7.50447097138837,2.3898518788245,0.111343742332928,"setosa"
"105.2",13.0961992161106,5.9256169135708,11.5086755961788,4.52843590519825,"virginica"
"143.6",11.5588627411889,5.32173107120811,10.4539021535872,3.68581449156444,"virginica"
